## RELATORIO GLPSOL LFSCHAUREN/RDLUGOKENSKI PARA pmed28.dat ##
!! Rodada 1 do pmed28. ++ Inicio: Dom Jun 21 14:57:42 BRT 2015
GLPSOL: GLPK LP/MIP Solver, v4.52
Parameter(s) specified in the command line:
 --model p-median.mod --data dat/pmed28.dat --tmlim 7200
Reading model section from p-median.mod...
35 lines were read
Reading data section from dat/pmed28.dat...
1211 lines were read
Generating Total_Distance...
Generating P...
Generating Correct_Attendance...
Generating Correct_Attendance_2...
Model has been successfully generated
GLPK Integer Optimizer, v4.52
360602 rows, 360600 columns, 1440000 non-zeros
360600 integer variables, all of which are binary
Preprocessing...
360601 rows, 360600 columns, 1080600 non-zeros
360600 integer variables, all of which are binary
Scaling...
 A: min|aij| =  1.000e+00  max|aij| =  1.000e+00  ratio =  1.000e+00
Problem data seem to be well scaled
Constructing initial basis...
Size of triangular part is 360601
Solving LP relaxation...
GLPK Simplex Optimizer, v4.52
360601 rows, 360600 columns, 1080600 non-zeros
      0: obj =   4.957400000e+04  infeas =  5.900e+01 (0)
*    59: obj =   4.957400000e+04  infeas =  0.000e+00 (0)
*   500: obj =   4.897100000e+04  infeas =  0.000e+00 (0)
*  1000: obj =   4.897100000e+04  infeas =  0.000e+00 (0)
*  1500: obj =   4.897100000e+04  infeas =  0.000e+00 (0)
*  2000: obj =   4.897100000e+04  infeas =  0.000e+00 (0)
*  2500: obj =   4.897100000e+04  infeas =  0.000e+00 (0)
*  3000: obj =   4.897100000e+04  infeas =  0.000e+00 (0)
*  3500: obj =   4.897100000e+04  infeas =  0.000e+00 (0)
*  4000: obj =   4.897100000e+04  infeas =  0.000e+00 (0)
*  4500: obj =   4.897100000e+04  infeas =  0.000e+00 (0)
*  5000: obj =   4.897100000e+04  infeas =  0.000e+00 (0)
*  5500: obj =   4.897100000e+04  infeas =  0.000e+00 (0)
*  6000: obj =   6.571000000e+03  infeas =  0.000e+00 (0)
*  6500: obj =   6.241000000e+03  infeas =  1.665e-16 (0)
*  7000: obj =   5.990500000e+03  infeas =  3.521e-14 (0)
*  7500: obj =   5.746653061e+03  infeas =  1.321e-16 (0)
*  8000: obj =   5.457376238e+03  infeas =  5.788e-13 (0)
*  8500: obj =   5.284721893e+03  infeas =  1.799e-14 (0)
*  9000: obj =   5.169416667e+03  infeas =  2.024e-13 (0)
*  9500: obj =   5.026630952e+03  infeas =  6.696e-14 (0)
* 10000: obj =   4.927588235e+03  infeas =  3.270e-12 (0)
* 10500: obj =   4.875920759e+03  infeas =  1.730e-13 (0)
* 11000: obj =   4.808285714e+03  infeas =  3.219e-13 (0)
* 11500: obj =   4.726529378e+03  infeas =  4.572e-14 (0)
* 12000: obj =   4.631066667e+03  infeas =  9.799e-14 (0)
* 12500: obj =   4.610000000e+03  infeas =  9.966e-13 (0)
* 13000: obj =   4.547750000e+03  infeas =  2.580e-14 (0)
* 13500: obj =   4.515071429e+03  infeas =  9.063e-15 (0)
* 13830: obj =   4.498000000e+03  infeas =  4.033e-13 (0)
OPTIMAL LP SOLUTION FOUND
Integer optimization begins...
+ 13830: mip =     not found yet >=              -inf        (1; 0)
+ 13867: mip =     not found yet >=   4.498000000e+03        (2; 0)
+ 13900: >>>>>   4.498000000e+03 >=   4.498000000e+03   0.0% (2; 0)
+ 13900: mip =   4.498000000e+03 >=     tree is empty   0.0% (0; 3)
INTEGER OPTIMAL SOLUTION FOUND
Time used:   230.3 secs
Memory used: 841.9 Mb (882767571 bytes)
Distancia total: 4498.00000
P escolhidos , max 60
N0: 0	N1: 0	N2: 0	N3: 0	N4: 0	N5: 0	N6: 0	N7: 0	N8: 0	N9: 0	N10: 1	N11: 1	N12: 0	N13: 0	N14: 0	N15: 0	N16: 0	N17: 0	N18: 0	N19: 0	N20: 0	N21: 0	N22: 0	N23: 0	N24: 0	N25: 0	N26: 0	N27: 0	N28: 0	N29: 0	N30: 0	N31: 0	N32: 0	N33: 0	N34: 0	N35: 0	N36: 0	N37: 0	N38: 0	N39: 0	N40: 0	N41: 0	N42: 0	N43: 1	N44: 0	N45: 0	N46: 0	N47: 0	N48: 0	N49: 0	N50: 0	N51: 0	N52: 0	N53: 1	N54: 0	N55: 0	N56: 0	N57: 1	N58: 0	N59: 1	N60: 0	N61: 0	N62: 0	N63: 0	N64: 0	N65: 0	N66: 0	N67: 0	N68: 0	N69: 0	N70: 0	N71: 0	N72: 0	N73: 0	N74: 0	N75: 1	N76: 0	N77: 0	N78: 0	N79: 0	N80: 0	N81: 0	N82: 0	N83: 0	N84: 0	N85: 0	N86: 0	N87: 0	N88: 0	N89: 1	N90: 0	N91: 0	N92: 0	N93: 0	N94: 0	N95: 0	N96: 0	N97: 0	N98: 0	N99: 0	N100: 0	N101: 0	N102: 0	N103: 0	N104: 0	N105: 0	N106: 0	N107: 1	N108: 0	N109: 1	N110: 0	N111: 0	N112: 0	N113: 0	N114: 0	N115: 0	N116: 1	N117: 0	N118: 0	N119: 0	N120: 0	N121: 0	N122: 1	N123: 0	N124: 1	N125: 0	N126: 0	N127: 0	N128: 0	N129: 0	N130: 0	N131: 0	N132: 0	N133: 0	N134: 0	N135: 1	N136: 0	N137: 0	N138: 0	N139: 1	N140: 1	N141: 0	N142: 0	N143: 0	N144: 0	N145: 0	N146: 1	N147: 0	N148: 0	N149: 0	N150: 0	N151: 0	N152: 0	N153: 0	N154: 0	N155: 0	N156: 0	N157: 0	N158: 0	N159: 0	N160: 0	N161: 0	N162: 0	N163: 0	N164: 0	N165: 0	N166: 0	N167: 0	N168: 0	N169: 0	N170: 0	N171: 0	N172: 0	N173: 1	N174: 0	N175: 0	N176: 0	N177: 0	N178: 0	N179: 0	N180: 0	N181: 0	N182: 0	N183: 0	N184: 0	N185: 0	N186: 1	N187: 0	N188: 0	N189: 0	N190: 0	N191: 0	N192: 0	N193: 0	N194: 0	N195: 0	N196: 0	N197: 0	N198: 0	N199: 1	N200: 0	N201: 0	N202: 0	N203: 0	N204: 0	N205: 0	N206: 0	N207: 0	N208: 1	N209: 0	N210: 0	N211: 1	N212: 0	N213: 0	N214: 0	N215: 0	N216: 0	N217: 1	N218: 0	N219: 0	N220: 0	N221: 0	N222: 0	N223: 0	N224: 0	N225: 0	N226: 0	N227: 0	N228: 0	N229: 0	N230: 0	N231: 0	N232: 0	N233: 0	N234: 0	N235: 0	N236: 0	N237: 0	N238: 0	N239: 0	N240: 0	N241: 0	N242: 0	N243: 0	N244: 0	N245: 1	N246: 0	N247: 0	N248: 0	N249: 0	N250: 0	N251: 0	N252: 0	N253: 0	N254: 0	N255: 0	N256: 0	N257: 0	N258: 0	N259: 0	N260: 0	N261: 1	N262: 0	N263: 0	N264: 1	N265: 0	N266: 0	N267: 0	N268: 0	N269: 1	N270: 0	N271: 0	N272: 0	N273: 0	N274: 0	N275: 0	N276: 1	N277: 0	N278: 0	N279: 0	N280: 0	N281: 0	N282: 0	N283: 0	N284: 0	N285: 0	N286: 0	N287: 0	N288: 1	N289: 0	N290: 0	N291: 0	N292: 0	N293: 0	N294: 1	N295: 0	N296: 0	N297: 0	N298: 0	N299: 0	N300: 0	N301: 0	N302: 0	N303: 0	N304: 0	N305: 0	N306: 0	N307: 0	N308: 0	N309: 0	N310: 0	N311: 0	N312: 0	N313: 0	N314: 0	N315: 1	N316: 0	N317: 1	N318: 0	N319: 0	N320: 0	N321: 1	N322: 0	N323: 0	N324: 0	N325: 0	N326: 0	N327: 0	N328: 0	N329: 0	N330: 0	N331: 1	N332: 0	N333: 0	N334: 0	N335: 0	N336: 0	N337: 0	N338: 0	N339: 1	N340: 0	N341: 0	N342: 0	N343: 1	N344: 0	N345: 0	N346: 0	N347: 0	N348: 0	N349: 0	N350: 0	N351: 0	N352: 0	N353: 0	N354: 0	N355: 1	N356: 0	N357: 0	N358: 0	N359: 0	N360: 0	N361: 0	N362: 0	N363: 0	N364: 0	N365: 0	N366: 0	N367: 0	N368: 0	N369: 0	N370: 0	N371: 0	N372: 0	N373: 1	N374: 0	N375: 0	N376: 0	N377: 0	N378: 1	N379: 1	N380: 0	N381: 0	N382: 0	N383: 0	N384: 0	N385: 0	N386: 0	N387: 0	N388: 0	N389: 0	N390: 0	N391: 0	N392: 1	N393: 0	N394: 0	N395: 1	N396: 0	N397: 0	N398: 0	N399: 0	N400: 0	N401: 0	N402: 1	N403: 0	N404: 1	N405: 0	N406: 0	N407: 0	N408: 0	N409: 0	N410: 0	N411: 0	N412: 0	N413: 0	N414: 0	N415: 0	N416: 0	N417: 0	N418: 0	N419: 0	N420: 0	N421: 0	N422: 0	N423: 0	N424: 0	N425: 1	N426: 0	N427: 0	N428: 0	N429: 0	N430: 0	N431: 0	N432: 0	N433: 0	N434: 0	N435: 0	N436: 0	N437: 0	N438: 0	N439: 0	N440: 0	N441: 0	N442: 0	N443: 0	N444: 0	N445: 0	N446: 0	N447: 0	N448: 0	N449: 0	N450: 0	N451: 0	N452: 0	N453: 0	N454: 0	N455: 0	N456: 0	N457: 0	N458: 0	N459: 0	N460: 0	N461: 0	N462: 0	N463: 0	N464: 0	N465: 0	N466: 0	N467: 0	N468: 0	N469: 0	N470: 0	N471: 0	N472: 0	N473: 1	N474: 1	N475: 0	N476: 0	N477: 0	N478: 0	N479: 0	N480: 0	N481: 0	N482: 0	N483: 0	N484: 0	N485: 0	N486: 0	N487: 1	N488: 0	N489: 0	N490: 0	N491: 0	N492: 0	N493: 0	N494: 0	N495: 0	N496: 0	N497: 0	N498: 0	N499: 1	N500: 0	N501: 0	N502: 1	N503: 0	N504: 0	N505: 1	N506: 0	N507: 0	N508: 0	N509: 0	N510: 0	N511: 0	N512: 0	N513: 0	N514: 0	N515: 0	N516: 0	N517: 0	N518: 0	N519: 0	N520: 0	N521: 1	N522: 0	N523: 0	N524: 0	N525: 0	N526: 0	N527: 0	N528: 0	N529: 0	N530: 0	N531: 0	N532: 0	N533: 1	N534: 1	N535: 0	N536: 0	N537: 0	N538: 0	N539: 1	N540: 0	N541: 0	N542: 0	N543: 0	N544: 0	N545: 0	N546: 0	N547: 0	N548: 0	N549: 0	N550: 0	N551: 0	N552: 0	N553: 0	N554: 0	N555: 0	N556: 0	N557: 0	N558: 0	N559: 0	N560: 0	N561: 0	N562: 0	N563: 0	N564: 0	N565: 0	N566: 0	N567: 0	N568: 1	N569: 0	N570: 0	N571: 0	N572: 0	N573: 0	N574: 0	N575: 0	N576: 0	N577: 1	N578: 0	N579: 0	N580: 0	N581: 0	N582: 0	N583: 0	N584: 0	N585: 0	N586: 0	N587: 0	N588: 0	N589: 1	N590: 0	N591: 0	N592: 0	N593: 0	N594: 0	N595: 1	N596: 0	N597: 0	N598: 0	N599: 1	
Model has been successfully processed
