!! Rodada 1 do pmed32. ++ Inicio: Sáb Jun 20 19:08:36 BRT 2015
Solucao Inicial: 11185
>>>>>>>>> ILS Iniciado <<<<<<<<<
Total de iteracoes 871
Solucao final com custo 9297
P Medianas escolhidas  [215, 295, 453, 269, 309, 354, 405, 660, 111, 560]
Tempo total real: 1009.464711585 secs
!! Rodada 2 do pmed32. ++ Inicio: Sáb Jun 20 19:28:38 BRT 2015
Solucao Inicial: 11373
>>>>>>>>> ILS Iniciado <<<<<<<<<
Total de iteracoes 828
Solucao final com custo 9297
P Medianas escolhidas  [660, 111, 405, 309, 295, 560, 453, 354, 215, 269]
Tempo total real: 925.063841009 secs
!! Rodada 3 do pmed32. ++ Inicio: Sáb Jun 20 19:47:12 BRT 2015
Solucao Inicial: 11483
>>>>>>>>> ILS Iniciado <<<<<<<<<
Total de iteracoes 1485
Solucao final com custo 9297
P Medianas escolhidas  [660, 111, 405, 354, 215, 453, 269, 295, 560, 309]
Tempo total real: 1667.150111186 secs
!! Rodada 4 do pmed32. ++ Inicio: Sáb Jun 20 20:18:07 BRT 2015
Solucao Inicial: 11340
>>>>>>>>> ILS Iniciado <<<<<<<<<
Total de iteracoes 847
Solucao final com custo 9297
P Medianas escolhidas  [453, 269, 111, 215, 309, 354, 295, 405, 660, 560]
Tempo total real: 953.187668748 secs
!! Rodada 5 do pmed32. ++ Inicio: Sáb Jun 20 20:37:13 BRT 2015
Solucao Inicial: 12038
>>>>>>>>> ILS Iniciado <<<<<<<<<
Total de iteracoes 836
Solucao final com custo 9297
P Medianas escolhidas  [453, 354, 660, 111, 215, 405, 295, 309, 269, 560]
Tempo total real: 999.639724409 secs
