!! Rodada 1 do pmed24. ++ Inicio: Sáb Jun 20 15:10:03 BRT 2015
Solucao Inicial: 4278
>>>>>>>>> ILS Iniciado <<<<<<<<<
Total de iteracoes 1479
Solucao final com custo 2974
P Medianas escolhidas  [53, 164, 391, 110, 138, 46, 468, 400, 181, 61, 199, 255, 322, 233, 228, 397, 240, 421, 90, 482, 85, 30, 378, 376, 124, 106, 142, 202, 294, 153, 105, 340, 289, 94, 128, 23, 448, 362, 74, 41, 201, 178, 248, 383, 158, 253, 346, 336, 435, 76, 166, 488, 172, 188, 10, 398, 230, 493, 367, 98, 499, 147, 370, 465, 417, 369, 195, 251, 15, 314, 333, 360, 268, 64, 317, 257, 60, 364, 412, 25, 291, 12, 439, 213, 245, 327, 490, 44, 297, 220, 211, 205, 428, 217, 114, 80, 420, 337, 424, 310]
Tempo total real: 1211.968157184 secs
!! Rodada 2 do pmed24. ++ Inicio: Sáb Jun 20 15:31:25 BRT 2015
Solucao Inicial: 4412
>>>>>>>>> ILS Iniciado <<<<<<<<<
Total de iteracoes 1818
Solucao final com custo 2968
P Medianas escolhidas  [309, 30, 383, 142, 172, 356, 493, 424, 110, 248, 211, 51, 481, 181, 418, 164, 487, 465, 11, 297, 291, 195, 400, 76, 41, 376, 108, 128, 362, 455, 317, 133, 120, 80, 327, 60, 367, 255, 241, 370, 488, 420, 398, 314, 490, 45, 377, 428, 251, 90, 124, 136, 337, 435, 253, 23, 421, 468, 15, 85, 105, 369, 74, 268, 106, 138, 310, 132, 205, 191, 499, 98, 12, 391, 408, 245, 397, 167, 217, 220, 289, 336, 40, 96, 233, 360, 240, 178, 364, 153, 179, 44, 53, 201, 322, 228, 47, 202, 115, 94]
Tempo total real: 1502.933088411 secs
!! Rodada 3 do pmed24. ++ Inicio: Sáb Jun 20 15:57:39 BRT 2015
Solucao Inicial: 4401
>>>>>>>>> ILS Iniciado <<<<<<<<<
Total de iteracoes 1419
Solucao final com custo 2969
P Medianas escolhidas  [76, 105, 369, 40, 85, 120, 455, 255, 312, 451, 220, 74, 213, 110, 362, 322, 228, 98, 142, 370, 336, 44, 23, 90, 30, 12, 398, 191, 379, 253, 251, 327, 172, 179, 417, 10, 294, 94, 310, 257, 364, 136, 493, 424, 159, 128, 435, 443, 41, 400, 61, 383, 377, 291, 114, 499, 47, 103, 391, 106, 167, 490, 53, 465, 51, 297, 60, 210, 240, 153, 211, 337, 227, 317, 16, 420, 181, 217, 428, 245, 164, 199, 205, 201, 376, 487, 178, 241, 268, 233, 81, 289, 481, 314, 340, 488, 421, 367, 439, 188]
Tempo total real: 1176.501299707 secs
!! Rodada 4 do pmed24. ++ Inicio: Sáb Jun 20 16:18:28 BRT 2015
Solucao Inicial: 4287
>>>>>>>>> ILS Iniciado <<<<<<<<<
Total de iteracoes 1496
Solucao final com custo 2967
P Medianas escolhidas  [228, 114, 488, 428, 266, 64, 53, 289, 191, 30, 179, 376, 499, 172, 12, 106, 166, 205, 169, 120, 181, 255, 195, 233, 362, 378, 493, 90, 199, 133, 309, 370, 240, 411, 105, 490, 251, 23, 418, 487, 391, 294, 245, 327, 220, 201, 211, 268, 465, 420, 98, 253, 132, 299, 365, 435, 383, 153, 291, 337, 41, 310, 481, 158, 142, 60, 136, 110, 248, 400, 340, 367, 202, 76, 45, 421, 124, 349, 16, 312, 227, 81, 217, 51, 297, 314, 317, 360, 128, 424, 398, 336, 369, 322, 10, 364, 74, 127, 188, 85]
Tempo total real: 1210.601300934 secs
!! Rodada 5 do pmed24. ++ Inicio: Sáb Jun 20 16:39:48 BRT 2015
Solucao Inicial: 4606
>>>>>>>>> ILS Iniciado <<<<<<<<<
Total de iteracoes 2465
Solucao final com custo 2961
P Medianas escolhidas  [159, 327, 314, 210, 377, 94, 251, 16, 383, 233, 362, 253, 299, 164, 110, 369, 481, 291, 105, 367, 220, 12, 172, 23, 217, 370, 294, 337, 179, 312, 61, 417, 490, 136, 90, 211, 142, 418, 133, 181, 230, 114, 340, 317, 128, 499, 309, 487, 60, 297, 124, 76, 103, 201, 46, 205, 53, 195, 132, 493, 138, 41, 398, 289, 266, 488, 51, 376, 98, 330, 74, 322, 336, 268, 364, 391, 420, 428, 400, 10, 241, 199, 81, 167, 255, 188, 435, 248, 40, 245, 153, 106, 227, 228, 30, 465, 85, 464, 421, 178]
Tempo total real: 1984.033999739 secs
