!! Rodada 1 do pmed12. ++ Inicio: Sáb Jun 20 13:09:51 BRT 2015
Solucao Inicial: 9705
>>>>>>>>> ILS Iniciado <<<<<<<<<
Total de iteracoes 853
Solucao final com custo 6634
P Medianas escolhidas  [293, 43, 5, 171, 138, 83, 216, 168, 173, 2]
Tempo total real: 183.747504833 secs
!! Rodada 2 do pmed12. ++ Inicio: Sáb Jun 20 13:13:10 BRT 2015
Solucao Inicial: 8507
>>>>>>>>> ILS Iniciado <<<<<<<<<
Total de iteracoes 832
Solucao final com custo 6634
P Medianas escolhidas  [138, 171, 173, 216, 43, 293, 168, 5, 83, 2]
Tempo total real: 181.498434564 secs
!! Rodada 3 do pmed12. ++ Inicio: Sáb Jun 20 13:16:27 BRT 2015
Solucao Inicial: 8626
>>>>>>>>> ILS Iniciado <<<<<<<<<
Total de iteracoes 832
Solucao final com custo 6634
P Medianas escolhidas  [43, 171, 168, 2, 216, 5, 173, 293, 83, 138]
Tempo total real: 185.591905364 secs
!! Rodada 4 do pmed12. ++ Inicio: Sáb Jun 20 13:19:48 BRT 2015
Solucao Inicial: 8435
>>>>>>>>> ILS Iniciado <<<<<<<<<
Total de iteracoes 840
Solucao final com custo 6634
P Medianas escolhidas  [168, 171, 173, 43, 5, 216, 83, 2, 293, 138]
Tempo total real: 185.987590571 secs
!! Rodada 5 do pmed12. ++ Inicio: Sáb Jun 20 13:23:10 BRT 2015
Solucao Inicial: 8073
>>>>>>>>> ILS Iniciado <<<<<<<<<
Total de iteracoes 825
Solucao final com custo 6634
P Medianas escolhidas  [171, 5, 293, 173, 83, 2, 138, 216, 43, 168]
Tempo total real: 179.960785886 secs
